{
  "$schema": "https://themost-framework.github.io/themost/models/2018/2/schema.json",
  "@id": "https://universis.io/entities/CourseExamStatistic",
  "abstract": false,
  "hidden": false,
  "sealed": false,
  "title": "CourseExamStatistic",
  "version": "1.1",
  "name": "CourseExamStatistic",
  "description": "Contains a collection of extra field required for course class.",
  "fields": [
    {
      "@id": "https://themost.io/schemas/id",
      "name": "id",
      "title": "ID",
      "description": "The identifier of the item.",
      "type": "Counter",
      "primary": true,
      "nullable": false
    },
    {
      "name": "courseExam",
      "@id": "https://universis.io/schemas/CourseExam",
      "title": "Εξέταση μαθήματος",
      "type": "CourseExam",
      "editable": false,
      "nullable": false
    },
    {
      "name": "numberOfStudents",
      "title": "Αριθμός φοιτητών που μπορούν να συμμετέχουν σε εξέταση",
      "description": "Αριθμός φοιτητών που μπορούν να συμμετέχουν σε εξέταση",
      "type": "Integer"
    },
    {
      "name": "passed",
      "title": "Αριθμός φοιτητών που πέρασαν το μάθημα",
      "description": "Αριθμός φοιτητών που πέρασαν το μάθημα",
      "type": "Integer"
    },
    {
      "name": "pending",
      "title": "Βαθμοί σε εκκρεμότητα",
      "description": "Βαθμοί σε εκκρεμότητα",
      "type": "Integer"
    },
    {
      "name": "remarks",
      "title": "Βαθμοί που αναβαθμολογήθηκαν",
      "description": "Βαθμοί που αναβαθμολογήθηκαν",
      "type": "Integer",
      "many": false
    },
    {
      "name": "failed",
      "title": "Βαθμοί που απέτυχαν",
      "description": "Βαθμοί που απέτυχαν",
      "type": "Integer"
    }
  ],
  "constraints": [
    {
      "type": "unique",
      "fields": [
        "courseExam"
      ]
    }
  ],
  "privileges": [
    {
      "mask": 15,
      "type": "global"
    },
    {
      "mask": 16,
      "type": "global"
    },
    {
      "mask": 15,
      "type": "self",
      "account": "Registrar",
      "filter": "courseExam/course/department eq departments()"
    },
    {
      "mask": 7,
      "type": "self",
      "filter": "courseExam/instructors/instructor eq instructor()",
      "account": "Instructors"
    },
    {
      "mask": 31,
      "type": "global",
      "account": "Administrators"
    }
  ]
}
