{
    "$schema": "https://themost-framework.github.io/themost/models/2018/2/schema.json",
    "@id": "https://universis.io/CreateUserAction",
    "name": "CreateUserAction",
    "description": "The act of creating a user.",
    "title": "CreateUserAction",
    "abstract": false,
    "sealed": false,
    "hidden": true,
    "inherits": "CreateAction",
    "version": "1.1",
    "fields": [
        {
            "name": "activationCode",
            "title": "Activation Code",
            "description": "Activation Code",
            "type": "Text",
            "size": 120
        }
    ],
    "eventListeners": [],
    "privileges": [
        {
            "mask": 15,
            "type": "global"
        },
        {
            "mask": 15,
            "type": "global",
            "account": "Administrators"
        }
    ]
}
