{
  "$schema": "https://themost-framework.github.io/themost/models/2018/2/schema.json",
  "@id": "https://universis.io/entities/DepartmentSnapshotLocale",
  "name": "DepartmentSnapshotLocale",
  "description": "Contains a collection of extra field required for department.",
  "title": "DepartmentSnapshotLocale",
  "abstract": false,
  "contains": "DepartmentSnapshot",
  "hidden": true,
  "sealed": false,
  "version": "1.3",
  "fields": [
    {
      "@id": "https://themost.io/schemas/id",
      "name": "id",
      "title": "ID",
      "description": "The identifier of the item.",
      "type": "Counter",
      "primary": true,
      "nullable": false
    },
    {
      "@id": "https://themost.io/schemas/object",
      "name": "object",
      "title": "object",
      "description": "The parent item.",
      "type": "DepartmentSnapshot"
    },
    {
      "@id": "http://schema.org/inLanguage",
      "name": "inLanguage",
      "title": "inLanguage",
      "description": "The language of this item.",
      "type": "Text",
      "size": 5
    },
    {
      "@id": "http://schema.org/name",
      "name": "name",
      "title": "Name",
      "description": "The name of the item.",
      "type": "Text",
      "size": 150
    },
    {
      "name": "contactPerson1",
      "title": "Όνομα υπεύθυνου 1",
      "description": "Όνομα υπεύθυνου επικοινωνίας 1",
      "type": "Text",
      "nullable": true,
      "size": 60
    },
    {
      "name": "contactPerson2",
      "title": "Όνομα υπεύθυνου 2",
      "description": "Όνομα υπεύθυνου επικοινωνίας 2",
      "type": "Text",
      "nullable": true,
      "size": 60
    },
    {
      "name": "notes",
      "title": "Σημειώσεις",
      "description": "Σημειώσεις",
      "type": "Note",
      "many": false
    },
    {
      "@id": "http://schema.org/name",
      "name": "instituteName",
      "title": "Ονομασία ιδρύματος",
      "description": "The institute name",
      "type": "Text",
      "size": 150,
      "nullable": false
    },
    {
      "@id": "http://schema.org/name",
      "name": "instituteAlternateName",
      "title": "Εναλλακτική ονομασία ιδρύματος",
      "description": "The alternate institute name",
      "type": "Text",
      "size": 150,
      "nullable": true
    },
    {
      "name": "facultyName",
      "title": "Ονομασία σχολής",
      "description": "Η ονομασία της σχολής εφόσον το τμήμα ανήκει σε σχολή.",
      "type": "Text",
      "nullable": true,
      "size": 150
    }
  ],
  "constraints": [
    {
      "type": "unique",
      "fields": [
        "object", "inLanguage"
      ]

    }
  ],
  "privileges": [
    {
      "mask": 1,
      "type": "global",
      "account": "*"
    },
    {
      "mask": 15,
      "type": "global"
    },
    {
      "mask": 15,
      "type": "self",
      "account": "Registrar",
      "filter": "object/department eq departments()"
    },
    {
      "mask": 15,
      "type": "global",
      "account": "Administrators"
    }
  ]
}
