{
  "$schema": "https://themost-framework.github.io/themost/models/2018/2/schema.json",
  "@id": "https://universis.io/entities/PersonLocale",
  "name": "PersonLocale",
  "description": "Contains a collection of extra field required for person.",
  "title": "PersonLocale",
  "abstract": false,
  "contains": "Person",
  "hidden": true,
  "sealed": false,
  "version": "1.2",
  "fields": [
    {
      "@id": "https://themost.io/schemas/id",
      "name": "id",
      "title": "Id",
      "description": "Id",
      "type": "Text",
      "nullable": false,
      "size": 36,
      "primary": true,
      "value":"javascript:return this.newGuid();"
    },
    {
      "@id": "https://themost.io/schemas/object",
      "name": "object",
      "title": "object",
      "description": "The parent item.",
      "type": "Person"
    },
    {
      "@id": "http://schema.org/inLanguage",
      "name": "inLanguage",
      "title": "inLanguage",
      "description": "The language of this item.",
      "type": "Text",
      "size": 5,
      "readonly": true
    },
    {
      "name": "familyName",
      "title": "Επώνυμο",
      "description": "Το επώνυμο της επαφής",
      "type": "Text",
      "nullable": true,
      "size": 60
    },
    {
      "name": "givenName",
      "title": "Όνομα",
      "description": "Το όνομα της επαφής",
      "type": "Text",
      "nullable": true,
      "size": 60
    },
    {
      "name": "fatherName",
      "title": "Πατρώνυμο",
      "description": "Το πατρώνυμο της επαφής",
      "type": "Text",
      "nullable": true,
      "size": 60
    },
    {
      "name": "motherName",
      "title": "Μητρώνυμο",
      "description": "Το μητρώνυμο της επαφής",
      "type": "Text",
      "nullable": true,
      "size": 60
    },
    {
      "name": "birthPlace",
      "title": "Τόπος γέννησης",
      "description": "Τόπος γέννησης",
      "type": "Text",
      "nullable": true,
      "size": 100
    }
  ],
  "constraints": [
    {
      "type": "unique",
      "fields": [
        "object", "inLanguage"
      ]

    }
  ],
  "privileges": [
    {
      "mask": 15,
      "type": "global"
    },
    {
      "mask": 15,
      "type": "global",
      "account": "Administrators"
    }
  ]
}
