{
  "$schema": "https://themost-framework.github.io/themost/models/2018/2/schema.json",
  "@id": "https://universis.io/schemas/RequiredCourseTypeRule",
  "name": "RequiredCourseTypeRule",
  "title": "Department required course types rules for student period registration",
  "hidden": false,
  "version": "1.0",
  "fields": [
    {
      "name": "id",
      "title": "Id",
      "description": "Id",
      "type": "Counter",
      "nullable": false,
      "primary": true
    },
    {
      "name": "target",
      "title": "The target object",
      "description": "The target object",
      "type": "Text",
      "nullable": false
    },
    {
      "name": "targetType",
      "title": "Target type",
      "description": "The type of the target object",
      "type": "Text",
      "nullable": false
    },
    {
      "name": "refersTo",
      "title": "Refers to model",
      "description": "Refers to model",
      "type": "Text",
      "nullable": false
    },
    {
      "name": "additionalType",
      "title": "The rule additional type",
      "description": "The rule additional type",
      "type": "Text",
      "nullable": false
    },
    {
      "name": "checkValues",
      "title": "The values to check",
      "description": "The values to check",
      "type": "Text"
    },
    {
      "name": "ruleOperator",
      "title": "Rule operator",
      "description": "The rule operator",
      "type": "Integer"
    },
    {
      "name": "value1",
      "title": "Min student semester",
      "description": "Check rule for students with semester greater or equal to this value",
      "type": "Text"
    },
    {
      "name": "value2",
      "title": "Max student semester",
      "description": "Check rule for students with semester greater or equal to this value",
      "type": "Text"
    },
    {
      "name": "value3",
      "title": "Combine rule with semester rules",
      "description": "VCombine rule with semester rules",
      "type": "Text"
    },
    {
      "name": "value4",
      "title": "Ignore Semester ",
      "description": "Ignore semester sequence",
      "type": "Text"
    },
    {
      "name": "value5",
      "title": "Total courses required",
      "description": "Total courses required from previous semesters",
      "type": "Text"
    },
    {
      "name": "value6",
      "title": "Value 6",
      "description": "Value 6",
      "type": "Text"
    },
    {
      "name": "value7",
      "title": "Value 7",
      "description": "Value 7",
      "type": "Text"
    },
    {
      "name": "value8",
      "title": "Value 8",
      "description": "Value 8",
      "type": "Text"
    },
    {
      "name": "value9",
      "title": "Value 9",
      "description": "Value 9",
      "type": "Text"
    },
    {
      "name": "value10",
      "title": "Value 10",
      "description": "Value 10",
      "type": "Text"
    },
    {
      "name": "value11",
      "title": "Value 11",
      "description": "Value 11",
      "type": "Text"
    },
    {
      "name": "value12",
      "title": "Value 12",
      "description": "Value 12",
      "type": "Text"
    },
    {
      "name": "value13",
      "title": "Value 13",
      "description": "Value 13",
      "type": "Text"
    },
    {
      "name": "ruleExpression",
      "title": "The rule expression",
      "description": "The rule expression",
      "type": "Text"
    },
    {
      "name": "programSpecialty",
      "title": "The rule for specific program specialty",
      "description": "The rule program specialty",
      "type": "Integer"
    }
  ],
  "privileges": [
    {
      "mask": 1,
      "type": "global",
      "account": "*"
    },
    {
      "mask": 15,
      "type": "global"
    }
  ]
}
