{
  "$schema": "https://themost-framework.github.io/themost/models/2018/2/schema.json",
  "@id": "https://universis.io/schemas/StudentCourse",
  "name": "StudentCourse",
  "title": "Student Courses",
  "hidden": false,
  "sealed": false,
  "version": "0.4",
  "classPath": "./models/student-course-model",
  "source": "StudentCourseBase",
  "view": "StudentCourseData",
  "fields": [
    {
      "name": "id",
      "title": "Id",
      "description": "Id",
      "type": "Text",
      "nullable": false,
      "size": 36,
      "primary": true,
      "readonly": true,
      "value": "javascript:return this.newGuid();"
    },
    {
      "name": "course",
      "title": "Κωδικός μαθήματος",
      "description": "Κωδικός μαθήματος",
      "type": "Course",
      "nullable": false,
      "editable": false
    },
    {
      "name": "student",
      "property": "student",
      "title": "Κωδικός φοιτητή",
      "description": "Κωδικός φοιτητή",
      "type": "Student",
      "nullable": false,
      "editable": false
    },
    {
      "name": "gradeYear",
      "title": "Ακαδημαϊκό έτος βαθμολογίας",
      "description": "Ακαδημαϊκό έτος βαθμολογίας",
      "type": "AcademicYear",
      "expandable": true
    },
    {
      "name": "gradePeriod",
      "title": "Περίοδος βαθμολογίας",
      "description": "Περίοδος βαθμολογίας",
      "type": "AcademicPeriod",
      "expandable": true
    },
    {
      "name": "courseTitle",
      "title": "Τίτλος μαθήματος",
      "description": "Τίτλος μαθήματος",
      "type": "Text",
      "nullable": true,
      "size": 150
    },
    {
      "name": "semester",
      "title": "Εξάμηνο μαθήματος",
      "description": "Εξάμηνο μαθήματος",
      "type": "Semester",
      "expandable": true,
      "nullable": false
    },
    {
      "name": "specialty",
      "title": "Κατεύθυνση μαθήματος",
      "description": "Κατεύθυνση μαθήματος",
      "type": "Integer",
      "nullable": true,
      "size": 4
    },
    {
      "name": "units",
      "title": "Διδακτικές μονάδες",
      "description": "Διδακτικές μονάδες",
      "type": "Number",
      "nullable": true,
      "size": 4
    },
    {
      "name": "coefficient",
      "title": "Συντελεστής πτυχίου",
      "description": "Συντελεστής πτυχίου",
      "type": "Number",
      "nullable": true,
      "size": 4
    },
    {
      "name": "grade",
      "title": "Βαθμός (0-1)",
      "description": "Βαθμός (0-1)",
      "type": "Number",
      "nullable": true,
      "size": 4
    },
    {
      "name": "gradePeriodDescription",
      "title": "Περιγραφή εξεταστικής περιόδου (μπορεί να περιέχει και ημερομηνία)",
      "description": "Περιγραφή εξεταστικής περιόδου (μπορεί να περιέχει και ημερομηνία)",
      "type": "Text",
      "nullable": true,
      "size": 10
    },
    {
      "name": "courseType",
      "title": "Τύπος μαθήματος",
      "description": "Τύπος μαθήματος",
      "type": "CourseType",
      "nullable": true,
      "expandable": true
    },
    {
      "name": "calculateUnits",
      "title": "Υπολογίζονται οι ΔΜ για τη λήψη πτυχίου",
      "description": "Υπολογίζονται οι ΔΜ για τη λήψη πτυχίου",
      "type": "Boolean",
      "calculation": "javascript:return this.convertStrictBoolean(this.target,'calculateUnits');",
      "nullable": false,
      "value": "javascript:return 1;"
    },
    {
      "name": "calculateGrade",
      "title": "Υπολογίζεται στο βαθμό πτυχίου (ΝΑΙ/ΟΧΙ)",
      "description": "Υπολογίζεται στο βαθμό πτυχίου (ΝΑΙ/ΟΧΙ)",
      "type": "Boolean",
      "calculation": "javascript:return this.convertStrictBoolean(this.target,'calculateGrade');",
      "nullable": false,
      "value": "javascript:return 1;"
    },
    {
      "name": "registrationType",
      "title": "Τύπος: 0:Κανονική/1:Απαλλαγή",
      "description": "Τύπος: 0:Κανονική/1:Απαλλαγή",
      "type": "Integer",
      "nullable": true,
      "size": 2,
      "value": "javascript:return 0;"
    },
    {
      "name": "notes",
      "title": "Σημειώσεις",
      "description": "Σημειώσεις",
      "type": "Text",
      "nullable": true,
      "size": 100,
      "many": false
    },
    {
      "name": "programGroup",
      "title": "Κωδικός ομάδας προγράμματος σπουδών",
      "description": "Κωδικός ομάδας προγράμματος σπουδών",
      "type": "ProgramGroup",
      "nullable": true
    },
    {
      "name": "groupPercent",
      "title": "Ποσοστό συμμετοχής του βαθμού στην ομάδα",
      "description": "Ποσοστό συμμετοχής του βαθμού στην ομάδα",
      "type": "Number",
      "nullable": true,
      "size": 4
    },
    {
      "name": "parentCourse",
      "title": "Κωδικός πατρικού μαθήματος",
      "description": "Κωδικός πατρικού μαθήματος",
      "type": "Text",
      "nullable": true,
      "size": 18
    },
    {
      "name": "coursePercent",
      "title": "Ποσοστό συμμετοχής του βαθμού στο πατρικό μάθημα",
      "description": "Ποσοστό συμμετοχής του βαθμού στο πατρικό μάθημα",
      "type": "Number",
      "nullable": true,
      "size": 4
    },
    {
      "name": "calculated",
      "title": "Υπολογίζεται (ΝΑΙ/ΟΧΙ)",
      "description": "Υπολογίζεται (ΝΑΙ/ΟΧΙ)",
      "type": "Boolean",
      "calculation": "javascript:return this.convertStrictBoolean(this.target,'calculated');",
      "nullable": true,
      "value": "javascript:return 1;"
    },
    {
      "name": "examPeriod",
      "title": "Κωδικός εξεταστικής περιόδου",
      "description": "Κωδικός εξεταστικής περιόδου",
      "type": "ExamPeriod",
      "nullable": true,
      "size": 2,
      "expandable": true
    },
    {
      "name": "hours",
      "title": "Ώρες διδασκαλίας μαθήματος",
      "description": "Ώρες διδασκαλίας μαθήματος",
      "type": "Number",
      "nullable": true,
      "size": 2
    },
    {
      "name": "ects",
      "title": "Μονάδες ECTS",
      "description": "Μονάδες ECTS",
      "type": "Number",
      "nullable": true,
      "size": 4
    },
    {
      "name": "lastRegistrationYear",
      "title": "Ακαδημαϊκό έτος τελευταίας δήλωσης",
      "description": "Ακαδημαϊκό έτος τελευταίας δήλωσης",
      "type": "AcademicYear",
      "expandable": true
    },
    {
      "name": "lastRegistrationPeriod",
      "title": "Ακαδημαϊκή περίοδος τελευταίας δήλωσης",
      "description": "Ακαδημαϊκή περίοδος τελευταίας δήλωσης",
      "type": "AcademicPeriod",
      "expandable": true
    },
    {
      "name": "percentileRank",
      "title": "Ποσοστιαία βαθμολογία μαθήματος",
      "description": "Ποσοστιαία βαθμολογία μαθήματος",
      "type": "Number",
      "nullable": true,
      "size": 4
    },
    {
      "name": "courseStructureType",
      "title": "Course structure type",
      "description": "Δομή μαθήματος",
      "type": "CourseStructureType",
      "expandable": true,
      "readonly": true
    },
    {
      "name": "isPassed",
      "title": "Passed course",
      "description": "Το μάθημα έχει περαστεί",
      "type": "Number",
      "readonly": true
    },
    {
      "name": "dateModified",
      "title": "Ημερομηνία τελευταίας τροποποίησης",
      "description": "Ημερομηνία τελευταίας τροποποίησης",
      "type": "DateTime",
      "nullable": false,
      "value": "javascript:return new Date();",
      "calculation": "javascript:return this.now();"
    },
    {
      "name": "repeated",
      "title": "Έχει ξαναδηλωθεί",
      "description": "Έχει ξαναδηλωθεί",
      "type": "Integer",
      "nullable": false,
      "size": 2,
      "value": "javascript:return 0;"
    },
    {
      "name": "formattedGrade",
      "title": "Βαθμός (στην κλίμακα)",
      "description": "Βαθμός (ανηγμένος στην κλίμακα)",
      "type": "Text",
      "readonly": true
    },
    {
      "name": "gradeExam",
      "title": "Εξέταση βαθμολογίας",
      "description": "Εξέταση βαθμολογίας",
      "type": "CourseExam",
      "readonly": true
    },
    {
      "name": "studyProgramSpecialty",
      "title": "Κατεύθυνση",
      "description": "Η κατεύθυνση του προγράμματος σπουδών που χρεώθηκε το μάθημα",
      "type": "StudyProgramSpecialty",
      "nullable": true,
      "readonly": true
    }
  ],
  "eventListeners": [
    {
      "type": "@themost/data/previous-state-listener"
    },
    {
      "type": "./listeners/student-course-listener"
    }
  ],
  "views": [
    {
      "name": "Passed",
      "filter": "grade ge 0.5"
    },
    {
      "name": "Exemptions",
      "filter": "registrationType eq -1"
    },
    {
      "name": "my",
      "filter": "student eq student()"
    },
    {
      "name": "CourseAttributes",
      "fields": [
        {
          "name": "semester"
        },
        {
          "name": "units"
        },
        {
          "name": "coefficient"
        },
        {
          "name": "hours"
        },
        {
          "name": "ects"
        },
        {
          "name": "courseType"
        }
      ]
    },
    {
      "name": "UpdatableCourseAttributes",
      "fields": [
        {
          "name": "courseTitle"
        },
        {
          "name": "semester"
        },
        {
          "name": "units"
        },
        {
          "name": "hours"
        },
        {
          "name": "ects"
        },
        {
          "name": "specialty"
        },
        {
          "name": "courseType"
        },
        {
          "name": "notes"
        }
      ]
    }
  ],
  "constraints": [
    {
      "type": "unique",
      "description": "A student grade must be unique for a course.",
      "fields": [
        "student",
        "course"
      ]
    }
  ],
  "privileges": [
    {
      "mask": 1,
      "type": "self",
      "filter": "student eq student()",
      "account": "Students"
    },
    {
      "mask": 15,
      "type": "global",
      "account": "Administrators"
    },
    {
      "mask": 15,
      "type": "global"
    },
    {
      "mask": 15,
      "type": "self",
      "account": "Registrar",
      "filter": "student/department eq departments() or course/department eq departments()"
    }
  ]
}
