{
  "$schema": "https://themost-framework.github.io/themost/models/2018/2/schema.json",
  "@id": "https://universis.io/schemas/StudentRegistrationTrace",
  "name": "StudentRegistrationTrace",
  "title": "Αναλυτικά στοιχεία φοιτητών ανά περίοδο",
  "description": "Κατάσταση φοιτητή ανά περίοδο",
  "hidden": true,
  "sealed": false,
  "version": "0.1",
  "source": "StudentRegistrationTraceData",
  "view": "StudentRegistrationTraceData",
  "fields": [
    {
      "name": "student",
      "title": "Φοιτητής",
      "description": "Φοιτητής",
      "type": "Student",
      "primary": true,
      "nullable": false,
      "editable": false
    },
    {
      "name": "referenceYear",
      "title": "Ακαδημαϊκό έτος αναφοράς",
      "description": "Ακαδημαϊκό έτος αναφοράς",
      "type": "AcademicYear",
      "expandable": true
    },
    {
      "name": "referencePeriod",
      "title": "Ακαδημαϊκή περίοδος αναφοράς",
      "description": "Ακαδημαϊκή περίοδος αναφοράς",
      "type": "AcademicPeriod",
      "expandable": true
    },
    {
      "name": "semester",
      "title": "Εξάμηνο",
      "description": "Το εξάμηνο του φοιτητή",
      "type": "Integer",
      "nullable": false
    },
    {
      "name": "endYear",
      "title": "Ακαδημαϊκό έτος",
      "description": "Τελευταίο ακαδημαϊκό έτος",
      "type": "AcademicYear",
      "expandable": true
    },
    {
      "name": "endPeriod",
      "title": "Ακαδημαϊκή περίοδος",
      "description": "Τελευταία ακαδημαϊκή περίοδος",
      "type": "AcademicPeriod",
      "expandable": true
    },
    {
      "name": "registrationSemester",
      "title": "Εξάμηνο εγγραφής",
      "description": "Το εξάμηνο εγγραφής του φοιτητή (κενό αν δεν έχει κάνει δήλωση)",
      "type": "Integer",
      "nullable": false
    },
    {
      "name": "active",
      "title": "Ενεργός στο έτος αναφοράς",
      "description": "Αν ο φοιτητής είναι ενεργός στο έτος και την περίοδο αναφοράς",
      "type": "Boolean"
    },
    {
      "name": "birthYear",
      "title": "Έτος γέννησης",
      "description": "Έτος γέννησης",
      "type": "Integer"
    }
  ],
  "privileges": [
    {
      "mask": 15,
      "type": "global",
      "account": "Administrators"
    },
    {
      "mask": 15,
      "type": "global"
    },
    {
      "mask": 16,
      "type": "global"
    },
    {
      "mask": 15,
      "type": "self",
      "account": "Registrar",
      "filter": "student/department eq departments()"
    }
  ]
}
