{
    "$schema": "https://themost-framework.github.io/themost/models/2018/2/schema.json",
    "@id": "http://schema.org/UsernameFormatSource",
    "name": "UsernameFormatSource",
    "title": "UsernameFormatSource",
    "abstract": false,
    "sealed": false,
    "implements": "Enumeration",
    "version": "1.0",
    "fields": [
        {
            "@id": "http://schema.org/additionalType",
            "name": "additionalType",
            "type": "Text",
            "readonly": true,
            "nullable": false,
            "value": "javascript:return this.model.name;"
        },
        {
            "@id": "http://schema.org/alternateName",
            "name": "alternateName",
            "type": "Text",
            "nullable": false
        },
        {
            "@id": "http://schema.org/name",
            "name": "name",
            "type": "Text",
            "nullable": false
        }
    ],
    "privileges": [
        {
            "mask": 15,
            "type": "global"
        },
        {
            "mask": 1,
            "type": "global",
            "account": "*"
        },
        {
            "mask": 15,
            "type": "global",
            "account": "Administrators"
        }
    ],
    "constraints": [
        {
            "type": "unique",
            "fields": [
                "alternateName"
            ]
        }
    ],
    "seed": [
        {
            "name": "None",
            "alternateName": "none",
            "description": "No username format source"
        },
        {
            "name": "Department",
            "alternateName": "department",
            "description": "Users will be named based on their department's username format"
        },
        {
            "name": "Custom",
            "alternateName": "custom",
            "description": "Users will be named based on a custom (institute-level) username format"
        }
    ]
}
