{
    "$schema": "https://themost-framework.github.io/themost/models/2018/2/schema.json",
    "@id": "http://schema.org/WebApplication",
    "name": "WebApplication",
    "description": "Web applications.",
    "title": "WebApplication",
    "abstract": false,
    "sealed": false,
    "inherits": "SoftwareApplication",
    "version": "1.0",
    "fields": [
        {
            "@id": "http://schema.org/browserRequirements",
            "name": "browserRequirements",
            "title": "browserRequirements",
            "description": "Specifies browser requirements in human-readable text. For example, 'requires HTML5 support'.",
            "type": "Text",
            "many": false
        }
    ],
    "privileges": [
        {
            "mask": 15,
            "type": "global"
        },
        {
            "mask": 15,
            "type": "global",
            "account": "Administrators"
        }
    ]
}